<svg width="1335" height="625" viewBox="0 0 1335 625" fill="none" xmlns="http://www.w3.org/2000/svg">
<g opacity="0.4">
<path fill-rule="evenodd" clip-rule="evenodd" d="M1306.32 239.538L1292.44 256.899L1278.81 247.379L1252.55 269.75L1252.21 269.355L1278.78 246.721L1292.34 256.192L1305.91 239.214L1306.32 239.538Z" fill="#BEBEBE"/>
<path d="M1254.36 269.214C1254.36 270.694 1253.16 271.893 1251.68 271.893C1250.2 271.893 1249 270.694 1249 269.214C1249 267.735 1250.2 266.536 1251.68 266.536C1253.16 266.536 1254.36 267.735 1254.36 269.214Z" fill="#BEBEBE"/>
<path fill-rule="evenodd" clip-rule="evenodd" d="M1251.68 271.383C1252.88 271.383 1253.85 270.412 1253.85 269.214C1253.85 268.017 1252.88 267.046 1251.68 267.046C1250.48 267.046 1249.51 268.017 1249.51 269.214C1249.51 270.412 1250.48 271.383 1251.68 271.383ZM1251.68 271.893C1253.16 271.893 1254.36 270.694 1254.36 269.214C1254.36 267.735 1253.16 266.536 1251.68 266.536C1250.2 266.536 1249 267.735 1249 269.214C1249 270.694 1250.2 271.893 1251.68 271.893Z" fill="#BEBEBE"/>
<path d="M1282.21 246.179C1282.21 247.658 1280.89 248.857 1279.27 248.857C1277.64 248.857 1276.32 247.658 1276.32 246.179C1276.32 244.699 1277.64 243.5 1279.27 243.5C1280.89 243.5 1282.21 244.699 1282.21 246.179Z" fill="#BEBEBE"/>
<path fill-rule="evenodd" clip-rule="evenodd" d="M1279.27 248.347C1280.59 248.347 1281.65 247.376 1281.65 246.179C1281.65 244.981 1280.59 244.01 1279.27 244.01C1277.95 244.01 1276.88 244.981 1276.88 246.179C1276.88 247.376 1277.95 248.347 1279.27 248.347ZM1279.27 248.857C1280.89 248.857 1282.21 247.658 1282.21 246.179C1282.21 244.699 1280.89 243.5 1279.27 243.5C1277.64 243.5 1276.32 244.699 1276.32 246.179C1276.32 247.658 1277.64 248.857 1279.27 248.857Z" fill="#BEBEBE"/>
<path d="M1295.61 256.357C1295.61 257.836 1294.29 259.036 1292.66 259.036C1291.03 259.036 1289.71 257.836 1289.71 256.357C1289.71 254.878 1291.03 253.679 1292.66 253.679C1294.29 253.679 1295.61 254.878 1295.61 256.357Z" fill="#BEBEBE"/>
<path fill-rule="evenodd" clip-rule="evenodd" d="M1292.66 258.526C1293.98 258.526 1295.05 257.555 1295.05 256.357C1295.05 255.16 1293.98 254.189 1292.66 254.189C1291.34 254.189 1290.28 255.16 1290.28 256.357C1290.28 257.555 1291.34 258.526 1292.66 258.526ZM1292.66 259.036C1294.29 259.036 1295.61 257.836 1295.61 256.357C1295.61 254.878 1294.29 253.679 1292.66 253.679C1291.03 253.679 1289.71 254.878 1289.71 256.357C1289.71 257.836 1291.03 259.036 1292.66 259.036Z" fill="#BEBEBE"/>
<path d="M1309 238.946C1309 240.574 1307.8 241.893 1306.32 241.893C1304.84 241.893 1303.64 240.574 1303.64 238.946C1303.64 237.319 1304.84 236 1306.32 236C1307.8 236 1309 237.319 1309 238.946Z" fill="#BEBEBE"/>
<path fill-rule="evenodd" clip-rule="evenodd" d="M1306.32 241.332C1307.52 241.332 1308.49 240.264 1308.49 238.946C1308.49 237.629 1307.52 236.561 1306.32 236.561C1305.12 236.561 1304.15 237.629 1304.15 238.946C1304.15 240.264 1305.12 241.332 1306.32 241.332ZM1306.32 241.893C1307.8 241.893 1309 240.574 1309 238.946C1309 237.319 1307.8 236 1306.32 236C1304.84 236 1303.64 237.319 1303.64 238.946C1303.64 240.574 1304.84 241.893 1306.32 241.893Z" fill="#BEBEBE"/>
</g>
<g opacity="0.4">
<path fill-rule="evenodd" clip-rule="evenodd" d="M1099.32 3.53818L1085.44 20.8991L1071.81 11.3793L1045.55 33.75L1045.21 33.3548L1071.78 10.7214L1085.34 20.1918L1098.91 3.21429L1099.32 3.53818Z" fill="#BEBEBE"/>
<path d="M1047.36 33.2143C1047.36 34.6936 1046.16 35.8928 1044.68 35.8928C1043.2 35.8928 1042 34.6936 1042 33.2143C1042 31.7349 1043.2 30.5357 1044.68 30.5357C1046.16 30.5357 1047.36 31.7349 1047.36 33.2143Z" fill="#BEBEBE"/>
<path fill-rule="evenodd" clip-rule="evenodd" d="M1044.68 35.3826C1045.88 35.3826 1046.85 34.4118 1046.85 33.2143C1046.85 32.0167 1045.88 31.0459 1044.68 31.0459C1043.48 31.0459 1042.51 32.0167 1042.51 33.2143C1042.51 34.4118 1043.48 35.3826 1044.68 35.3826ZM1044.68 35.8928C1046.16 35.8928 1047.36 34.6936 1047.36 33.2143C1047.36 31.7349 1046.16 30.5357 1044.68 30.5357C1043.2 30.5357 1042 31.7349 1042 33.2143C1042 34.6936 1043.2 35.8928 1044.68 35.8928Z" fill="#BEBEBE"/>
<path d="M1075.21 10.1786C1075.21 11.6579 1073.89 12.8571 1072.27 12.8571C1070.64 12.8571 1069.32 11.6579 1069.32 10.1786C1069.32 8.69924 1070.64 7.5 1072.27 7.5C1073.89 7.5 1075.21 8.69924 1075.21 10.1786Z" fill="#BEBEBE"/>
<path fill-rule="evenodd" clip-rule="evenodd" d="M1072.27 12.3469C1073.59 12.3469 1074.65 11.3761 1074.65 10.1786C1074.65 8.98102 1073.59 8.0102 1072.27 8.0102C1070.95 8.0102 1069.88 8.98102 1069.88 10.1786C1069.88 11.3761 1070.95 12.3469 1072.27 12.3469ZM1072.27 12.8571C1073.89 12.8571 1075.21 11.6579 1075.21 10.1786C1075.21 8.69924 1073.89 7.5 1072.27 7.5C1070.64 7.5 1069.32 8.69924 1069.32 10.1786C1069.32 11.6579 1070.64 12.8571 1072.27 12.8571Z" fill="#BEBEBE"/>
<path d="M1088.61 20.3572C1088.61 21.8365 1087.29 23.0357 1085.66 23.0357C1084.03 23.0357 1082.71 21.8365 1082.71 20.3572C1082.71 18.8778 1084.03 17.6786 1085.66 17.6786C1087.29 17.6786 1088.61 18.8778 1088.61 20.3572Z" fill="#BEBEBE"/>
<path fill-rule="evenodd" clip-rule="evenodd" d="M1085.66 22.5255C1086.98 22.5255 1088.05 21.5547 1088.05 20.3572C1088.05 19.1596 1086.98 18.1888 1085.66 18.1888C1084.34 18.1888 1083.28 19.1596 1083.28 20.3572C1083.28 21.5547 1084.34 22.5255 1085.66 22.5255ZM1085.66 23.0357C1087.29 23.0357 1088.61 21.8365 1088.61 20.3572C1088.61 18.8778 1087.29 17.6786 1085.66 17.6786C1084.03 17.6786 1082.71 18.8778 1082.71 20.3572C1082.71 21.8365 1084.03 23.0357 1085.66 23.0357Z" fill="#BEBEBE"/>
<path d="M1102 2.94643C1102 4.5737 1100.8 5.89286 1099.32 5.89286C1097.84 5.89286 1096.64 4.5737 1096.64 2.94643C1096.64 1.31916 1097.84 0 1099.32 0C1100.8 0 1102 1.31916 1102 2.94643Z" fill="#BEBEBE"/>
<path fill-rule="evenodd" clip-rule="evenodd" d="M1099.32 5.33163C1100.52 5.33163 1101.49 4.26374 1101.49 2.94643C1101.49 1.62912 1100.52 0.561224 1099.32 0.561224C1098.12 0.561224 1097.15 1.62912 1097.15 2.94643C1097.15 4.26374 1098.12 5.33163 1099.32 5.33163ZM1099.32 5.89286C1100.8 5.89286 1102 4.5737 1102 2.94643C1102 1.31916 1100.8 0 1099.32 0C1097.84 0 1096.64 1.31916 1096.64 2.94643C1096.64 4.5737 1097.84 5.89286 1099.32 5.89286Z" fill="#BEBEBE"/>
</g>
<g opacity="0.4">
<path fill-rule="evenodd" clip-rule="evenodd" d="M108.768 544.948L97.2006 559.416L85.8407 551.483L63.9619 570.125L63.6785 569.796L85.8141 550.935L97.1151 558.826L108.427 544.679L108.768 544.948Z" fill="#BEBEBE"/>
<path d="M65.4643 569.679C65.4643 570.911 64.4649 571.911 63.2321 571.911C61.9994 571.911 61 570.911 61 569.679C61 568.446 61.9994 567.446 63.2321 567.446C64.4649 567.446 65.4643 568.446 65.4643 569.679Z" fill="#BEBEBE"/>
<path fill-rule="evenodd" clip-rule="evenodd" d="M63.2321 571.486C64.2301 571.486 65.0391 570.677 65.0391 569.679C65.0391 568.681 64.2301 567.872 63.2321 567.872C62.2342 567.872 61.4252 568.681 61.4252 569.679C61.4252 570.677 62.2342 571.486 63.2321 571.486ZM63.2321 571.911C64.4649 571.911 65.4643 570.911 65.4643 569.679C65.4643 568.446 64.4649 567.446 63.2321 567.446C61.9994 567.446 61 568.446 61 569.679C61 570.911 61.9994 571.911 63.2321 571.911Z" fill="#BEBEBE"/>
<path d="M88.6785 550.482C88.6785 551.715 87.5792 552.714 86.2232 552.714C84.8671 552.714 83.7678 551.715 83.7678 550.482C83.7678 549.249 84.8671 548.25 86.2232 548.25C87.5792 548.25 88.6785 549.249 88.6785 550.482Z" fill="#BEBEBE"/>
<path fill-rule="evenodd" clip-rule="evenodd" d="M86.2232 552.289C87.3209 552.289 88.2108 551.48 88.2108 550.482C88.2108 549.484 87.3209 548.675 86.2232 548.675C85.1254 548.675 84.2355 549.484 84.2355 550.482C84.2355 551.48 85.1254 552.289 86.2232 552.289ZM86.2232 552.714C87.5792 552.714 88.6785 551.715 88.6785 550.482C88.6785 549.249 87.5792 548.25 86.2232 548.25C84.8671 548.25 83.7678 549.249 83.7678 550.482C83.7678 551.715 84.8671 552.714 86.2232 552.714Z" fill="#BEBEBE"/>
<path d="M99.8392 558.964C99.8392 560.197 98.7399 561.196 97.3838 561.196C96.0278 561.196 94.9285 560.197 94.9285 558.964C94.9285 557.732 96.0278 556.732 97.3838 556.732C98.7399 556.732 99.8392 557.732 99.8392 558.964Z" fill="#BEBEBE"/>
<path fill-rule="evenodd" clip-rule="evenodd" d="M97.3838 560.771C98.4816 560.771 99.3715 559.962 99.3715 558.964C99.3715 557.966 98.4816 557.157 97.3838 557.157C96.2861 557.157 95.3962 557.966 95.3962 558.964C95.3962 559.962 96.2861 560.771 97.3838 560.771ZM97.3838 561.196C98.7399 561.196 99.8392 560.197 99.8392 558.964C99.8392 557.732 98.7399 556.732 97.3838 556.732C96.0278 556.732 94.9285 557.732 94.9285 558.964C94.9285 560.197 96.0278 561.196 97.3838 561.196Z" fill="#BEBEBE"/>
<path d="M111 544.455C111 545.811 110.001 546.911 108.768 546.911C107.535 546.911 106.536 545.811 106.536 544.455C106.536 543.099 107.535 542 108.768 542C110.001 542 111 543.099 111 544.455Z" fill="#BEBEBE"/>
<path fill-rule="evenodd" clip-rule="evenodd" d="M108.768 546.443C109.766 546.443 110.575 545.553 110.575 544.455C110.575 543.358 109.766 542.468 108.768 542.468C107.77 542.468 106.961 543.358 106.961 544.455C106.961 545.553 107.77 546.443 108.768 546.443ZM108.768 546.911C110.001 546.911 111 545.811 111 544.455C111 543.099 110.001 542 108.768 542C107.535 542 106.536 543.099 106.536 544.455C106.536 545.811 107.535 546.911 108.768 546.911Z" fill="#BEBEBE"/>
</g>
<g opacity="0.4">
<path d="M1294.43 36.4286V53.5714H1311.57V36.4286H1294.43ZM1308.14 50.1428H1297.86V39.8571H1308.14V50.1428Z" fill="#BEBEBE"/>
<path d="M1327 39.8571V36.4286H1320.14V31.2857C1320.14 30.3764 1319.78 29.5043 1319.14 28.8613C1318.5 28.2184 1317.62 27.8571 1316.71 27.8571H1311.57V21H1308.14V27.8571H1297.86V21H1294.43V27.8571H1289.29C1288.38 27.8571 1287.5 28.2184 1286.86 28.8613C1286.22 29.5043 1285.86 30.3764 1285.86 31.2857V36.4286H1279V39.8571H1285.86V50.1429H1279V53.5714H1285.86V58.7143C1285.86 59.6236 1286.22 60.4957 1286.86 61.1387C1287.5 61.7816 1288.38 62.1429 1289.29 62.1429H1294.43V69H1297.86V62.1429H1308.14V69H1311.57V62.1429H1316.71C1317.62 62.1429 1318.5 61.7816 1319.14 61.1387C1319.78 60.4957 1320.14 59.6236 1320.14 58.7143V53.5714H1327V50.1429H1320.14V39.8571H1327ZM1316.71 58.7143H1289.29V31.2857H1316.71V58.7143Z" fill="#BEBEBE"/>
</g>
<g opacity="0.4">
<path d="M20.4287 397.429V414.571H37.5716V397.429H20.4287ZM34.143 411.143H23.8573V400.857H34.143V411.143Z" fill="#BEBEBE"/>
<path d="M53 400.857V397.429H46.1429V392.286C46.1429 391.376 45.7816 390.504 45.1387 389.861C44.4957 389.218 43.6236 388.857 42.7143 388.857H37.5714V382H34.1429V388.857H23.8571V382H20.4286V388.857H15.2857C14.3764 388.857 13.5043 389.218 12.8613 389.861C12.2184 390.504 11.8571 391.376 11.8571 392.286V397.429H5V400.857H11.8571V411.143H5V414.571H11.8571V419.714C11.8571 420.624 12.2184 421.496 12.8613 422.139C13.5043 422.782 14.3764 423.143 15.2857 423.143H20.4286V430H23.8571V423.143H34.1429V430H37.5714V423.143H42.7143C43.6236 423.143 44.4957 422.782 45.1387 422.139C45.7816 421.496 46.1429 420.624 46.1429 419.714V414.571H53V411.143H46.1429V400.857H53ZM42.7143 419.714H15.2857V392.286H42.7143V419.714Z" fill="#BEBEBE"/>
</g>
<g opacity="0.4">
<path d="M169.536 184.536V198.464H183.464V184.536H169.536ZM180.679 195.679H172.322V187.321H180.679V195.679Z" fill="#BEBEBE"/>
<path d="M196 187.321V184.536H190.429V180.357C190.429 179.618 190.135 178.91 189.613 178.387C189.09 177.865 188.382 177.571 187.643 177.571H183.464V172H180.679V177.571H172.321V172H169.536V177.571H165.357C164.618 177.571 163.91 177.865 163.387 178.387C162.865 178.91 162.571 179.618 162.571 180.357V184.536H157V187.321H162.571V195.679H157V198.464H162.571V202.643C162.571 203.382 162.865 204.09 163.387 204.613C163.91 205.135 164.618 205.429 165.357 205.429H169.536V211H172.321V205.429H180.679V211H183.464V205.429H187.643C188.382 205.429 189.09 205.135 189.613 204.613C190.135 204.09 190.429 203.382 190.429 202.643V198.464H196V195.679H190.429V187.321H196ZM187.643 202.643H165.357V180.357H187.643V202.643Z" fill="#BEBEBE"/>
</g>
<g opacity="0.4">
<path d="M968.929 601.929V614.071H981.072V601.929H968.929ZM978.643 611.643H971.357V604.357H978.643V611.643Z" fill="#BEBEBE"/>
<path d="M992 604.357V601.929H987.143V598.286C987.143 597.642 986.887 597.024 986.432 596.568C985.976 596.113 985.358 595.857 984.714 595.857H981.071V591H978.643V595.857H971.357V591H968.929V595.857H965.286C964.642 595.857 964.024 596.113 963.568 596.568C963.113 597.024 962.857 597.642 962.857 598.286V601.929H958V604.357H962.857V611.643H958V614.071H962.857V617.714C962.857 618.358 963.113 618.976 963.568 619.432C964.024 619.887 964.642 620.143 965.286 620.143H968.929V625H971.357V620.143H978.643V625H981.071V620.143H984.714C985.358 620.143 985.976 619.887 986.432 619.432C986.887 618.976 987.143 618.358 987.143 617.714V614.071H992V611.643H987.143V604.357H992ZM984.714 617.714H965.286V598.286H984.714V617.714Z" fill="#BEBEBE"/>
</g>
<g opacity="0.4">
<path d="M360.393 338.393V346.607H368.607V338.393H360.393ZM366.964 344.964H362.036V340.036H366.964V344.964Z" fill="#BEBEBE"/>
<path d="M376 340.036V338.393H372.714V335.929C372.714 335.493 372.541 335.075 372.233 334.767C371.925 334.459 371.507 334.286 371.071 334.286H368.607V331H366.964V334.286H362.036V331H360.393V334.286H357.929C357.493 334.286 357.075 334.459 356.767 334.767C356.459 335.075 356.286 335.493 356.286 335.929V338.393H353V340.036H356.286V344.964H353V346.607H356.286V349.071C356.286 349.507 356.459 349.925 356.767 350.233C357.075 350.541 357.493 350.714 357.929 350.714H360.393V354H362.036V350.714H366.964V354H368.607V350.714H371.071C371.507 350.714 371.925 350.541 372.233 350.233C372.541 349.925 372.714 349.507 372.714 349.071V346.607H376V344.964H372.714V340.036H376ZM371.071 349.071H357.929V335.929H371.071V349.071Z" fill="#BEBEBE"/>
</g>
<g opacity="0.4">
<path d="M684.393 38.3929V46.6071H692.607V38.3929H684.393ZM690.964 44.9643H686.036V40.0357H690.964V44.9643Z" fill="#BEBEBE"/>
<path d="M700 40.0357V38.3929H696.714V35.9286C696.714 35.4929 696.541 35.075 696.233 34.7669C695.925 34.4588 695.507 34.2857 695.071 34.2857H692.607V31H690.964V34.2857H686.036V31H684.393V34.2857H681.929C681.493 34.2857 681.075 34.4588 680.767 34.7669C680.459 35.075 680.286 35.4929 680.286 35.9286V38.3929H677V40.0357H680.286V44.9643H677V46.6071H680.286V49.0714C680.286 49.5071 680.459 49.925 680.767 50.2331C681.075 50.5412 681.493 50.7143 681.929 50.7143H684.393V54H686.036V50.7143H690.964V54H692.607V50.7143H695.071C695.507 50.7143 695.925 50.5412 696.233 50.2331C696.541 49.925 696.714 49.5071 696.714 49.0714V46.6071H700V44.9643H696.714V40.0357H700ZM695.071 49.0714H681.929V35.9286H695.071V49.0714Z" fill="#BEBEBE"/>
</g>
<g opacity="0.4">
<path d="M957.393 325.393V333.607H965.607V325.393H957.393ZM963.964 331.964H959.036V327.036H963.964V331.964Z" fill="#BEBEBE"/>
<path d="M973 327.036V325.393H969.714V322.929C969.714 322.493 969.541 322.075 969.233 321.767C968.925 321.459 968.507 321.286 968.071 321.286H965.607V318H963.964V321.286H959.036V318H957.393V321.286H954.929C954.493 321.286 954.075 321.459 953.767 321.767C953.459 322.075 953.286 322.493 953.286 322.929V325.393H950V327.036H953.286V331.964H950V333.607H953.286V336.071C953.286 336.507 953.459 336.925 953.767 337.233C954.075 337.541 954.493 337.714 954.929 337.714H957.393V341H959.036V337.714H963.964V341H965.607V337.714H968.071C968.507 337.714 968.925 337.541 969.233 337.233C969.541 336.925 969.714 336.507 969.714 336.071V333.607H973V331.964H969.714V327.036H973ZM968.071 336.071H954.929V322.929H968.071V336.071Z" fill="#BEBEBE"/>
</g>
<g opacity="0.4">
<path d="M1319.39 476.393V484.607H1327.61V476.393H1319.39ZM1325.96 482.964H1321.04V478.036H1325.96V482.964Z" fill="#BEBEBE"/>
<path d="M1335 478.036V476.393H1331.71V473.929C1331.71 473.493 1331.54 473.075 1331.23 472.767C1330.93 472.459 1330.51 472.286 1330.07 472.286H1327.61V469H1325.96V472.286H1321.04V469H1319.39V472.286H1316.93C1316.49 472.286 1316.07 472.459 1315.77 472.767C1315.46 473.075 1315.29 473.493 1315.29 473.929V476.393H1312V478.036H1315.29V482.964H1312V484.607H1315.29V487.071C1315.29 487.507 1315.46 487.925 1315.77 488.233C1316.07 488.541 1316.49 488.714 1316.93 488.714H1319.39V492H1321.04V488.714H1325.96V492H1327.61V488.714H1330.07C1330.51 488.714 1330.93 488.541 1331.23 488.233C1331.54 487.925 1331.71 487.507 1331.71 487.071V484.607H1335V482.964H1331.71V478.036H1335ZM1330.07 487.071H1316.93V473.929H1330.07V487.071Z" fill="#BEBEBE"/>
</g>
<g opacity="0.4">
<path d="M337.393 547.393V555.607H345.607V547.393H337.393ZM343.964 553.964H339.036V549.036H343.964V553.964Z" fill="#BEBEBE"/>
<path d="M353 549.036V547.393H349.714V544.929C349.714 544.493 349.541 544.075 349.233 543.767C348.925 543.459 348.507 543.286 348.071 543.286H345.607V540H343.964V543.286H339.036V540H337.393V543.286H334.929C334.493 543.286 334.075 543.459 333.767 543.767C333.459 544.075 333.286 544.493 333.286 544.929V547.393H330V549.036H333.286V553.964H330V555.607H333.286V558.071C333.286 558.507 333.459 558.925 333.767 559.233C334.075 559.541 334.493 559.714 334.929 559.714H337.393V563H339.036V559.714H343.964V563H345.607V559.714H348.071C348.507 559.714 348.925 559.541 349.233 559.233C349.541 558.925 349.714 558.507 349.714 558.071V555.607H353V553.964H349.714V549.036H353ZM348.071 558.071H334.929V544.929H348.071V558.071Z" fill="#BEBEBE"/>
</g>
<g opacity="0.4">
<path fill-rule="evenodd" clip-rule="evenodd" d="M3.57398 88H2.14439V95.5H3.57398V88ZM12.2945 95.5H7.7198L7.14796 94.675V93.175L7.7198 92.5H12.2945L12.8663 93.25V94.75L12.2945 95.5ZM5.14653 100H0.571837L0 99.25V97.75L0.571837 97H5.14653L5.71837 97.75V99.25L5.14653 100ZM10.7219 88H9.29235V91H10.7219V88ZM9.29235 97H10.7219V106H9.29235V97ZM3.57398 101.5H2.14439V106H3.57398V101.5ZM14.8678 101.5H19.4282L20 100.75V99.325L19.4282 98.575H14.8678L14.2959 99.325V100.75L14.8678 101.5ZM17.8699 88H16.4403V97H17.8699V88ZM16.4403 103H17.8699V106H16.4403V103Z" fill="#BEBEBE"/>
</g>
<g opacity="0.4">
<path fill-rule="evenodd" clip-rule="evenodd" d="M1034.93 107H1033.36V115.25H1034.93V107ZM1044.52 115.25H1039.49L1038.86 114.342V112.692L1039.49 111.95H1044.52L1045.15 112.775V114.425L1044.52 115.25ZM1036.66 120.2H1031.63L1031 119.375V117.725L1031.63 116.9H1036.66L1037.29 117.725V119.375L1036.66 120.2ZM1042.79 107H1041.22V110.3H1042.79V107ZM1041.22 116.9H1042.79V126.8H1041.22V116.9ZM1034.93 121.85H1033.36V126.8H1034.93V121.85ZM1047.35 121.85H1052.37L1053 121.025V119.458L1052.37 118.632H1047.35L1046.73 119.458V121.025L1047.35 121.85ZM1050.66 107H1049.08V116.9H1050.66V107ZM1049.08 123.5H1050.66V126.8H1049.08V123.5Z" fill="#BEBEBE"/>
</g>
<g opacity="0.4">
<path fill-rule="evenodd" clip-rule="evenodd" d="M684.574 546H683.144V553.5H684.574V546ZM693.294 553.5H688.72L688.148 552.675V551.175L688.72 550.5H693.294L693.866 551.25V552.75L693.294 553.5ZM686.147 558H681.572L681 557.25V555.75L681.572 555H686.147L686.718 555.75V557.25L686.147 558ZM691.722 546H690.292V549H691.722V546ZM690.292 555H691.722V564H690.292V555ZM684.574 559.5H683.144V564H684.574V559.5ZM695.868 559.5H700.428L701 558.75V557.325L700.428 556.575H695.868L695.296 557.325V558.75L695.868 559.5ZM698.87 546H697.44V555H698.87V546ZM697.44 561H698.87V564H697.44V561Z" fill="#BEBEBE"/>
</g>
</svg>
